Division,WeightClassKg,Place,Name,Team,BodyweightKg,Best3SquatKg,Best3BenchKg,Best3DeadliftKg,TotalKg,Equipment,Event,Sex
Varsity,51.71,1,Thomas Soto,Corpus Christi Calallen,51.44,183.7,86.18,188.24,458.13,Single-ply,SBD,M
Varsity,51.71,2,William Hinojosa,Beeville Jones,51.26,111.13,63.5,127.01,301.64,Single-ply,SBD,M
Varsity,55.79,1,Michael Casarez,Three Rivers,55.79,176.9,90.72,192.78,460.4,Single-ply,SBD,M
Varsity,55.79,2,Jacob de la Paz,Corpus Christi Calallen,54.52,151.95,70.31,156.49,378.75,Single-ply,SBD,M
Varsity,55.79,3,Mauro Garcia,Port Lavaca Calhoun,54.7,142.88,77.11,154.22,374.21,Single-ply,SBD,M
Varsity,59.87,1,Robert Seward,Corpus Christi Calallen,57.06,147.42,77.11,165.56,390.09,Single-ply,SBD,M
Varsity,59.87,2,Ben Heard,Corpus Christi Calallen,59.15,140.61,79.38,161.03,381.02,Single-ply,SBD,M
Varsity,59.87,3,Matthew Valdez,San Diego,56.52,136.08,72.57,158.76,367.41,Single-ply,SBD,M
Varsity,67.13,1,Rico Rodriguez,San Diego,66.45,217.72,129.27,249.48,596.47,Single-ply,SBD,M
Varsity,74.84,2,Travis Charles,Bishop,67.31,249.48,124.74,217.72,591.94,Single-ply,SBD,M
Varsity,74.84,3,Jared Reilly,Corpus Christi Calallen,67.36,213.19,117.93,226.8,557.92,Single-ply,SBD,M
Varsity,67.13,4,Elijah Velasquez,Port Lavaca Calhoun,63.14,181.44,111.13,172.37,464.93,Single-ply,SBD,M
Varsity,67.13,5,Jimmy Gonzales,Port Lavaca Calhoun,64.05,158.76,86.18,172.37,417.3,Single-ply,SBD,M
Varsity,67.13,6,Albert Salinas,Bishop,66.86,158.76,90.72,154.22,403.7,Single-ply,SBD,M
Varsity,67.13,DQ,Jeremiah Keever,Bishop,66.04,,,,,Single-ply,SBD,M
Varsity,74.84,1,Tristan Pelitire,Beeville Jones,72.94,199.58,142.88,204.12,546.58,Single-ply,SBD,M
Varsity,74.84,2,Dillon Torres,Beeville Jones,71.21,183.7,120.2,192.78,496.68,Single-ply,SBD,M
Varsity,74.84,3,Jose Gonzalez #15,Alice,73.84,185.97,86.18,204.12,476.27,Single-ply,SBD,M
Varsity,74.84,4,Austin Castillo,Corpus Christi Calallen,74.3,170.1,97.52,199.58,467.2,Single-ply,SBD,M
Varsity,74.84,5,Joel Sandoval,Kingsville King,72.94,131.54,83.91,158.76,374.21,Single-ply,SBD,M
Varsity,74.84,DQ,Jared Garcia,Corpus Christi Calallen,72.8,181.44,,,,Single-ply,SBD,M
Varsity,74.84,DQ,Eddie Garza,San Diego,74.39,170.1,,,,Single-ply,SBD,M
Varsity,89.81,1,Jacob Flores,Beeville Jones,82.28,222.26,111.13,208.65,542.04,Single-ply,SBD,M
Varsity,82.1,2,Joe Hernandez #4,Alice,81.28,185.97,115.67,185.97,487.61,Single-ply,SBD,M
Varsity,89.81,3,Ben Burkett,Bishop,82.33,176.9,117.93,188.24,483.08,Single-ply,SBD,M
Varsity,82.1,4,Drew Ortiz,Port Lavaca Calhoun,80.01,176.9,113.4,190.51,480.81,Single-ply,SBD,M
Varsity,82.1,5,Aaron Villareal,Kingsville King,79.65,158.76,92.99,183.7,435.45,Single-ply,SBD,M
Varsity,82.1,6,Ricky de la Paz,San Diego,78.83,136.08,88.45,165.56,390.09,Single-ply,SBD,M
Varsity,89.81,1,Brandon Griffith,Port Lavaca Calhoun,88.72,272.16,204.12,249.48,725.75,Single-ply,SBD,M
Varsity,89.81,2,Javiel Rojas,Kingsville King,87.72,254.01,140.61,272.16,666.78,Single-ply,SBD,M
Varsity,99.79,3,AJ Alvarez,Bishop,90.04,283.5,129.27,244.94,657.71,Single-ply,SBD,M
Varsity,89.81,4,Alfonso Montalvo,Riviera Kaufer,86.18,272.16,142.88,240.4,655.44,Single-ply,SBD,M
Varsity,89.81,5,Leo Adams,Alice,89.36,217.72,163.29,199.58,580.6,Single-ply,SBD,M
Varsity,89.81,6,Roy Saenz,Bishop,87.45,199.58,120.2,226.8,546.58,Single-ply,SBD,M
Varsity,89.81,7,Gabriel Casarez,Port Lavaca Calhoun,83.46,183.7,106.59,181.44,471.74,Single-ply,SBD,M
Varsity,89.81,8,Jesus Carrasco,Alice,85.91,158.76,90.72,199.58,449.06,Single-ply,SBD,M
Varsity,89.81,DQ,Mateo Lopez #2,Alice,88.18,165.56,,,,Single-ply,SBD,M
Varsity,89.81,DQ,Tony Ledesma,Riviera Kaufer,86.27,,,,,Single-ply,SBD,M
Varsity,99.79,1,Alex Tanguma,Corpus Christi Calallen,95.03,258.55,165.56,249.48,673.58,Single-ply,SBD,M
Varsity,99.79,2,Ryan de la Cruz,San Diego,90.72,274.42,120.2,258.55,653.17,Single-ply,SBD,M
Varsity,99.79,3,Luis Guerra,Bishop,97.43,240.4,113.4,213.19,566.99,Single-ply,SBD,M
Varsity,99.79,4,John Rivera,Alice,94.35,222.26,142.88,188.24,553.38,Single-ply,SBD,M
Varsity,99.79,5,Philip Barrientos,Bishop,92.99,190.51,131.54,210.92,532.97,Single-ply,SBD,M
Varsity,99.79,6,Jesse Gomez,Kingsville King,97.79,217.72,127.01,188.24,532.97,Single-ply,SBD,M
Varsity,99.79,7,Jacob Longoria,Riviera Kaufer,92.08,174.63,117.93,195.04,487.61,Single-ply,SBD,M
Varsity,99.79,8,Jody Stratman,Port Lavaca Calhoun,99.56,185.97,113.4,188.24,487.61,Single-ply,SBD,M
Varsity,99.79,9,David Garcia #15,Riviera Kaufer,95.71,165.56,92.99,174.63,433.18,Single-ply,SBD,M
Varsity,99.79,10,Zach Collings,Corpus Christi Calallen,91.72,147.42,95.25,158.76,401.43,Single-ply,SBD,M
Varsity,99.79,DQ,Justin Salinas,Kingsville King,97.25,206.38,,,,Single-ply,SBD,M
Varsity,109.77,1,Harley Vickers,Alice,109.77,272.16,181.44,240.4,694,Single-ply,SBD,M
Varsity,109.77,2,Michael Rodriguez #4,Kingsville King,104.96,256.28,192.78,226.8,675.85,Single-ply,SBD,M
Varsity,109.77,3,Alex Garcia #6,San Diego,109.32,260.82,145.15,217.72,623.69,Single-ply,SBD,M
Varsity,109.77,4,Nick Trevino #2,Kingsville King,104.78,226.8,120.2,263.08,610.08,Single-ply,SBD,M
Varsity,109.77,5,Blade Bronstadt,Corpus Christi Calallen,105.41,238.14,120.2,226.8,585.13,Single-ply,SBD,M
Varsity,109.77,6,Steven Castanada,Port Lavaca Calhoun,105.51,204.12,149.69,167.83,521.63,Single-ply,SBD,M
Varsity,109.77,DQ,Daniel Diaz,Three Rivers,103.65,,,,,Single-ply,SBD,M
Varsity,124.74,1,Richie Salinas,Kingsville King,122.92,235.87,183.7,213.19,632.76,Single-ply,SBD,M
Varsity,124.74,2,Cameron Ellerbee,Beeville Jones,122.11,206.38,133.81,233.6,573.79,Single-ply,SBD,M
Varsity,124.74,3,Warren Oaks,Alice,112.76,210.92,142.88,210.92,564.72,Single-ply,SBD,M
Varsity,124.74,4,JR Perez,Port Lavaca Calhoun,123.92,231.33,142.88,190.51,564.72,Single-ply,SBD,M
Varsity,124.74,5,Jeremiah Reyes,Corpus Christi Calallen,113.58,215.46,149.69,188.24,553.38,Single-ply,SBD,M
Varsity,124.74,6,Bobo Garcia,Alice,117.3,183.7,113.4,163.29,460.4,Single-ply,SBD,M
Varsity,124.74+,1,Adam Aleman,Beeville Jones,154.4,317.51,156.49,251.74,725.75,Single-ply,SBD,M
Varsity,124.74+,2,Thalen Villarreal,Port Lavaca Calhoun,158.49,226.8,151.95,233.6,612.35,Single-ply,SBD,M
Varsity,124.74+,3,Luis Lopez #1,Kingsville King,134.35,219.99,111.13,226.8,557.92,Single-ply,SBD,M
Varsity,124.74+,4,Kamar Shelton,Kingsville King,146.6,151.95,99.79,192.78,444.52,Single-ply,SBD,M
